%YAML 1.1
%TAG !u! tag:unity3d.com,2011:
--- !u!114 &11400000
MonoBehaviour:
  m_ObjectHideFlags: 0
  m_CorrespondingSourceObject: {fileID: 0}
  m_PrefabInstance: {fileID: 0}
  m_PrefabAsset: {fileID: 0}
  m_GameObject: {fileID: 0}
  m_Enabled: 1
  m_EditorHideFlags: 0
  m_Script: {fileID: 11500000, guid: dfa2e2090d824b44a9a5bc3841a742a9, type: 3}
  m_Name: EnemyData - Tornado
  m_EditorClassIdentifier: 
  enemyType: 2
  name: TornadoXY
  healthPoint: 150
  minDamage: 0
  maxDamage: 1000
  speed: 500
  material: {fileID: 2100000, guid: b7a325a8a26c78d48be866e486bab7e3, type: 2}
