%YAML 1.1
%TAG !u! tag:unity3d.com,2011:
--- !u!114 &11400000
MonoBehaviour:
  m_ObjectHideFlags: 0
  m_CorrespondingSourceObject: {fileID: 0}
  m_PrefabInstance: {fileID: 0}
  m_PrefabAsset: {fileID: 0}
  m_GameObject: {fileID: 0}
  m_Enabled: 1
  m_EditorHideFlags: 0
  m_Script: {fileID: 11500000, guid: dfa2e2090d824b44a9a5bc3841a742a9, type: 3}
  m_Name: EnemyData - Phoenix
  m_EditorClassIdentifier: 
  enemyType: 0
  name: Phoenix
  healthPoint: 500
  minDamage: 0
  maxDamage: 100
  speed: 50
  material: {fileID: 2100000, guid: eaed01919c7135e4ab4ac7bd102330e5, type: 2}
